{
	"ramperbrightness": {
		"sectiondown": [
			[-3.709969789,9555.308157],
			[-5.608208955,12812.68657],
			[-7.616161616,15720.20202],
			[-8.875675676,17294.59459],
			[-12.11147541,20740.72131],
			[-16.62264151,24169.20755],
			[-20.17647059,25928.35294],
			[-23.62068966,27399.03448],
			[-31.02654867,30131.79646],
			[-41.1,32710.6],
			[-43.31578947,33211.36842],
			[-54.51724138,35530.06897],
			[-80.11111111,39343.55556],
			[-110.5806452,42512.3871],
			[-162,46266],
			[-179.7692308,47367.69231],
			[-256.1333333,51109.53333],
			[-398.9090909,55963.90909],
			[-636.25,61422.75],
			[-1170.833333,69441.5]
		],
		"section_downpoint": [1716,1448,1250,1065,760,495,427,369,256,226,207,149,104,73,62,49,34,23,15,9],
		"section_down_min_step": [17,11,8,7,5,4,3,3,2,2,2,2,2,2,2,2,2,2,2,2],
		"sectiondowngapminone": 20,
		"sectiondowngapmintwo": 80,
		"sectiondownkeybr": 369,
		"downlcmFlickValue": 2,
		"uptotaltime": 2800,
		"uplimmitcount": 25,
		"section_uppoint": [415,1255],
		"quickupstep": [29,82,78],
		"quickupgap": [20,0,0],
		"quickdownstep": [9,5,24,80],
		"quickdowngap": [40,40,30,20],
		"quick_sectionpoint": [956,292,252,28],
		"pemtotaltime": 10000
	}
}
