[
	{
		"project":[
			"default"
		],
		"AutoCctMap":[
			[ 1,  0,    255, 248, 217],
			[ 2,  3500, 255, 248, 220],
			[ 3,  4000, 255, 248, 222],
			[ 4,  4500, 255, 250, 227],
			[ 5,  5000, 255, 252, 232],
			[ 6,  5500, 255, 252, 236],
			[ 7,  6000, 255, 252, 240],
			[ 8,  6500, 255, 255, 243],
			[ 9,  7000, 255, 255, 247],
			[10,  7500, 255, 254, 249],
			[11,  8000, 255, 255, 252],
			[12,  8500, 255, 255, 254],
			[13,  9000, 253, 255, 254],
			[14,  9500, 253, 255, 255],
			[15, 10000, 251, 254, 255],
			[16, 10500, 250, 254, 255],
			[17, 11000, 255, 255, 255]
		]
	},
	{
		"project":[
			"dpd2106"
		],
		"AutoCctMap":[
			[ 1,  0,    255, 248, 217],
			[ 2,  3500, 255, 248, 220],
			[ 3,  4000, 255, 248, 222],
			[ 4,  4500, 255, 250, 227],
			[ 5,  5000, 255, 252, 232],
			[ 6,  5500, 255, 252, 236],
			[ 7,  6000, 255, 252, 240],
			[ 8,  6500, 255, 255, 243],
			[ 9,  7000, 255, 255, 247],
			[10,  7500, 255, 254, 249],
			[11,  8000, 255, 255, 252],
			[12,  8500, 255, 255, 254],
			[13,  9000, 253, 255, 254],
			[14,  9500, 253, 255, 255],
			[15, 10000, 251, 254, 255],
			[16, 10500, 250, 254, 255],
			[17, 11000, 255, 255, 255]
		]
	},
	{
		"project":[
			"pd1982"
		],
		"AutoCctMap":[
			[ 1,  0,    255, 248, 217],
			[ 2,  3500, 255, 248, 220],
			[ 3,  4000, 255, 248, 222],
			[ 4,  4500, 255, 250, 227],
			[ 5,  5000, 255, 252, 232],
			[ 6,  5500, 255, 252, 236],
			[ 7,  6000, 255, 252, 240],
			[ 8,  6500, 255, 255, 243],
			[ 9,  7000, 255, 255, 247],
			[10,  7500, 255, 254, 249],
			[11,  8000, 255, 255, 252],
			[12,  8500, 255, 255, 254],
			[13,  9000, 253, 255, 254],
			[14,  9500, 253, 255, 255],
			[15, 10000, 251, 254, 255],
			[16, 10500, 250, 254, 255],
			[17, 11000, 255, 255, 255]
		]
	}
]